{
    "artId": "",
    "appName": "collegePortal",
    "description": "It contains collage events",
    "lastModified": "2020-02-05T11:37:15.624Z",
    "artURL": "http://localhost:3000/bhive-art/",
    "version": "1.0.0",
    "dataSource": "neutrinos-training-rt",
    "createDate": "2020-01-31T09:35:18.937Z",
    "tenantName": "neutrinos-training",
    "oldAppName": "image-carousel",
    "studioVersion": "6.2.1",
    "imgSourcePath": "appIcon-1580902635572.jpg"
}
