[
    {
        "id": "sd_ZZc4c3wCJuY69TIK",
        "type": "tab",
        "createdDate": "2020-02-04T11:03:24.537Z",
        "label": "eventservice",
        "disabled": false,
        "info": "",
        "generateNext": true,
        "generated": false,
        "serviceName": "eventservice"
    },
    {
        "id": "sd_1wE1wapemgnuviV8",
        "type": "Start",
        "z": "sd_ZZc4c3wCJuY69TIK",
        "name": "get events",
        "outputs": 1,
        "noerr": 0,
        "inputVariables": [],
        "localVariables": [
            {
                "key": "modelrURL",
                "defaultValue": {
                    "type": "str",
                    "value": ""
                },
                "output": false
            },
            {
                "key": "result",
                "defaultValue": {
                    "type": "str",
                    "value": ""
                },
                "output": true
            }
        ],
        "functionName": "getEvents",
        "x": 183.1875,
        "y": 107.921875,
        "wires": [
            [
                "sd_Cnv0itYOkhO0VGZq"
            ]
        ],
        "generateNext": true,
        "generated": false,
        "serviceName": "eventservice"
    },
    {
        "id": "sd_Cnv0itYOkhO0VGZq",
        "type": "Script",
        "z": "sd_ZZc4c3wCJuY69TIK",
        "name": "",
        "script": "bh.local.modelrURL = `http://localhost:24483/api/getevents`\nconsole.log(\"plx\")",
        "x": 357.03125,
        "y": 124.921875,
        "wires": [
            [
                "sd_d2dg3wMw4JbbvMNb"
            ]
        ],
        "generateNext": false,
        "generated": true,
        "serviceName": "eventservice"
    },
    {
        "id": "sd_d2dg3wMw4JbbvMNb",
        "type": "HttpRequest",
        "z": "sd_ZZc4c3wCJuY69TIK",
        "name": "",
        "method": "get",
        "methodMappingObj": {},
        "urlMapping": "bh.local.modelrURL",
        "urlMappingObj": {
            "mapVarType": "bh.local",
            "mapVarValue": "modelrURL"
        },
        "ret": "json",
        "retMappingObj": {},
        "reqBodyObj": {
            "mapVarType": "bh.input",
            "mapVarValue": ""
        },
        "resultMapping": "bh.local.result",
        "resultMappingObj": {
            "mapVarType": "bh.local",
            "mapVarValue": "result"
        },
        "headers": {},
        "headersObj": [],
        "headerMappingObj": {},
        "params": {},
        "paramsObj": [],
        "paramMappingObj": {},
        "x": 531.03125,
        "y": 143.90625,
        "wires": [
            []
        ],
        "generateNext": false,
        "generated": true
    },
    {
        "id": "sd_5h7VQvXOMnuQ922m",
        "type": "Start",
        "z": "sd_ZZc4c3wCJuY69TIK",
        "name": "send event",
        "outputs": 1,
        "noerr": 0,
        "inputVariables": [
            {
                "key": "data",
                "defaultValue": {
                    "type": "str",
                    "value": ""
                },
                "output": false
            }
        ],
        "localVariables": [
            {
                "key": "modelrURL",
                "defaultValue": {
                    "type": "str",
                    "value": ""
                },
                "output": false
            },
            {
                "key": "result",
                "defaultValue": {
                    "type": "str",
                    "value": ""
                },
                "output": true
            }
        ],
        "functionName": "sendEvent",
        "x": 151.1875,
        "y": 203.921875,
        "wires": [
            [
                "sd_9uFrAmfeceQt0SmH"
            ]
        ],
        "generateNext": true,
        "generated": false,
        "serviceName": "eventservice"
    },
    {
        "id": "sd_9uFrAmfeceQt0SmH",
        "type": "Script",
        "z": "sd_ZZc4c3wCJuY69TIK",
        "name": "",
        "script": "bh.local.modelrURL = `http://localhost:24483/api/sendevent`",
        "x": 310.03125,
        "y": 236.921875,
        "wires": [
            [
                "sd_2GgIsdw3xoCfKqKm"
            ]
        ],
        "generateNext": false,
        "generated": true
    },
    {
        "id": "sd_2GgIsdw3xoCfKqKm",
        "type": "HttpRequest",
        "z": "sd_ZZc4c3wCJuY69TIK",
        "name": "",
        "method": "post",
        "methodMappingObj": {},
        "urlMapping": "bh.local.modelrURL",
        "urlMappingObj": {
            "mapVarType": "bh.local",
            "mapVarValue": "modelrURL"
        },
        "ret": "json",
        "retMappingObj": {},
        "reqBody": "bh.input.data",
        "reqBodyObj": {
            "mapVarType": "bh.input",
            "mapVarValue": "data"
        },
        "resultMapping": "bh.local.result",
        "resultMappingObj": {
            "mapVarType": "bh.local",
            "mapVarValue": "result"
        },
        "headers": {},
        "headersObj": [],
        "headerMappingObj": {},
        "params": {},
        "paramsObj": [],
        "paramMappingObj": {},
        "x": 501.03125,
        "y": 243.90625,
        "wires": [
            []
        ],
        "generateNext": false,
        "generated": true
    },
    {
        "id": "sd_1427pfN4UOijpz8C",
        "type": "Start",
        "z": "sd_ZZc4c3wCJuY69TIK",
        "name": "delete events",
        "outputs": 1,
        "noerr": 0,
        "inputVariables": [
            {
                "key": "data",
                "defaultValue": {
                    "type": "str",
                    "value": ""
                },
                "output": false
            }
        ],
        "localVariables": [
            {
                "key": "modelrURL",
                "defaultValue": {
                    "type": "str",
                    "value": ""
                },
                "output": false
            },
            {
                "key": "result",
                "defaultValue": {
                    "type": "str",
                    "value": ""
                },
                "output": true
            }
        ],
        "functionName": "deleteEvents",
        "x": 165.1875,
        "y": 295.921875,
        "wires": [
            [
                "sd_oacEBnLjgHhqKZCB"
            ]
        ],
        "generateNext": true,
        "generated": false,
        "serviceName": "eventservice"
    },
    {
        "id": "sd_oacEBnLjgHhqKZCB",
        "type": "Script",
        "z": "sd_ZZc4c3wCJuY69TIK",
        "name": "",
        "script": "bh.local.modelrURL= `http://localhost:24483/api/deleteevent`",
        "x": 312.03125,
        "y": 310.921875,
        "wires": [
            [
                "sd_9gLv55hD4Mlew0hN"
            ]
        ],
        "generateNext": false,
        "generated": true
    },
    {
        "id": "sd_9gLv55hD4Mlew0hN",
        "type": "HttpRequest",
        "z": "sd_ZZc4c3wCJuY69TIK",
        "name": "",
        "method": "post",
        "methodMappingObj": {},
        "urlMapping": "bh.local.modelrURL",
        "urlMappingObj": {
            "mapVarType": "bh.local",
            "mapVarValue": "modelrURL"
        },
        "ret": "json",
        "retMappingObj": {},
        "reqBody": "bh.input.data",
        "reqBodyObj": {
            "mapVarType": "bh.input",
            "mapVarValue": "data"
        },
        "resultMapping": "bh.local.result",
        "resultMappingObj": {
            "mapVarType": "bh.local",
            "mapVarValue": "result"
        },
        "headers": {},
        "headersObj": [],
        "headerMappingObj": {},
        "params": {},
        "paramsObj": [],
        "paramMappingObj": {},
        "x": 435.03125,
        "y": 308.90625,
        "wires": [
            []
        ],
        "generateNext": false,
        "generated": true
    }
]
