{
    "f43ec4c7-3496-a36b-da88-c166b67ff254": {
        "appPageName": "carousel",
        "componentName": "carouselComponent",
        "isEntry": false
    },
    "3ca8b8e6-9dad-8edf-e81f-1a54d8f9cb06": {
        "appPageName": "departments",
        "componentName": "departmentsComponent",
        "isEntry": false
    },
    "cc8b3f47-ccc0-573f-9848-80b798573abe": {
        "appPageName": "cse",
        "componentName": "cseComponent",
        "isEntry": false
    },
    "4246843d-869e-a6fc-3835-253368966a8e": {
        "appPageName": "home",
        "componentName": "homeComponent",
        "isEntry": false
    },
    "416fb984-19dd-58d7-fb90-a21ad2a30409": {
        "appPageName": "ece",
        "componentName": "eceComponent",
        "isEntry": false
    },
    "771c6716-8968-b9b0-7ef3-d03350592571": {
        "appPageName": "mech",
        "componentName": "mechComponent",
        "isEntry": false
    },
    "3b467036-8051-873a-338c-51edfca06385": {
        "appPageName": "eee",
        "componentName": "eeeComponent",
        "isEntry": false
    },
    "1236c900-0788-77f1-9f36-14fba22b6094": {
        "appPageName": "civil",
        "componentName": "civilComponent",
        "isEntry": false
    },
    "5d71bb4e-8a47-2533-e17e-789be8486012": {
        "appPageName": "results",
        "componentName": "resultsComponent",
        "isEntry": false
    },
    "5721fdd3-95fe-39b4-f415-0ceb7c9b63f8": {
        "appPageName": "contactus",
        "componentName": "contactusComponent",
        "isEntry": false
    },
    "a722a0d0-108c-a117-d265-ab82c7445c7f": {
        "appPageName": "resultPage",
        "componentName": "resultpageComponent",
        "isEntry": false
    },
    "6d1dc37c-2cb1-46e6-08f7-ca4df6932880": {
        "appPageName": "displayresult",
        "componentName": "displayresultComponent",
        "isEntry": false
    },
    "2ebe557c-02ef-e99f-eea4-f594a928d198": {
        "appPageName": "queryservice",
        "componentName": "queryserviceComponent",
        "isEntry":false
    },
    "8cd14103-35d7-5dd2-e703-fd66d11c4578": {
        "appPageName": "adminLogin",
        "componentName": "adminloginComponent",
        "isEntry": false
    },
    "7c33b5f1-29c2-3afe-5486-1d6d57ffeae1": {
        "appPageName": "staffDetails",
        "componentName": "staffdetailsComponent",
        "isEntry": false
    },
    "467395a4-8b5b-ddbd-8c18-bf762cf3a9b8": {
        "appPageName": "staffUpdate",
        "componentName": "staffupdateComponent",
        "isEntry": false
    },
    "21cf45cd-2310-c28b-1516-5fd6acfb8c24": {
        "appPageName": "staffLogin",
        "componentName": "staffloginComponent",
        "isEntry": false
    },
    "23b6e9a7-679a-8eb1-15c2-fa9116e860ba": {
        "appPageName": "eventsDetail",
        "componentName": "eventsdetailComponent",
        "isEntry": false
    },
    "6ef50939-3067-3cc3-b4ed-f292e6ad85c8": {
        "appPageName": "addevents",
        "componentName": "addeventsComponent",
        "isEntry": false
    }
}