{
    "appPageId": "3b467036-8051-873a-338c-51edfca06385",
    "appPageName": "eee",
    "componentName": "eeeComponent",
    "selectorName": "bh-eee",
    "htmlFileName": "eee.template.html",
    "tsFileName": "eee.component.ts",
    "bkd": {
        "designerHtml": "",
        "designerReference": {},
        "ts": ""
    }
}
